<?xml version="1.0" encoding="UTF-8" standalone="no"?>
<!-- Created with Inkscape (http://www.inkscape.org/) -->
<svg
   xmlns:svg="http://www.w3.org/2000/svg"
   xmlns="http://www.w3.org/2000/svg"
   xmlns:xlink="http://www.w3.org/1999/xlink"
   version="1.0"
   width="64"
   height="64"
   id="svg1307">
  <defs
     id="defs1309">
    <linearGradient
       id="linearGradient45846">
      <stop
         style="stop-color:#000000;stop-opacity:1"
         offset="0"
         id="stop45848" />
      <stop
         style="stop-color:#ff0000;stop-opacity:0.49803922"
         offset="1"
         id="stop45856" />
      <stop
         style="stop-color:#000000;stop-opacity:0"
         offset="1"
         id="stop45850" />
    </linearGradient>
    <linearGradient
       id="linearGradient43181">
      <stop
         style="stop-color:#ffffff;stop-opacity:1"
         offset="0"
         id="stop43183" />
      <stop
         style="stop-color:#ffffff;stop-opacity:0"
         offset="1"
         id="stop43185" />
    </linearGradient>
    <linearGradient
       id="linearGradient43167">
      <stop
         style="stop-color:#ffffff;stop-opacity:1"
         offset="0"
         id="stop43171" />
    </linearGradient>
    <linearGradient
       id="linearGradient43153">
      <stop
         style="stop-color:#ff0000;stop-opacity:1"
         offset="0"
         id="stop43155" />
      <stop
         style="stop-color:#ff0000;stop-opacity:0"
         offset="1"
         id="stop43157" />
    </linearGradient>
    <linearGradient
       id="linearGradient43135">
      <stop
         style="stop-color:#ff0000;stop-opacity:1"
         offset="0"
         id="stop43137" />
      <stop
         style="stop-color:#ff0000;stop-opacity:0.49803922"
         offset="0.5"
         id="stop43143" />
      <stop
         style="stop-color:#ff0000;stop-opacity:0"
         offset="1"
         id="stop43139" />
    </linearGradient>
    <linearGradient
       x1="29.767645"
       y1="21.989304"
       x2="33.890106"
       y2="21.989304"
       id="linearGradient43163"
       xlink:href="#linearGradient43153"
       gradientUnits="userSpaceOnUse"
       gradientTransform="translate(-4.568008e-6,1.005348e-6)" />
    <radialGradient
       cx="32.26815"
       cy="23.272726"
       r="2.8198164"
       fx="32.26815"
       fy="23.272726"
       id="radialGradient43189"
       xlink:href="#linearGradient43181"
       gradientUnits="userSpaceOnUse"
       gradientTransform="matrix(1,0,0,4.372132,4.319916e-7,-78.47871)" />
  </defs>
  <g
     style="display:inline"
     id="layer1">
    <path
       d="M 31.09375,11.0625 C 20.336714,11.556399 11.75,20.75409 11.75,32 C 11.75,43.56206 20.820157,52.937502 32,52.9375 C 43.179843,52.9375 52.250001,43.56206 52.25,32 C 52.25,20.43794 43.179843,11.0625 32,11.0625 C 31.694301,11.0625 31.396157,11.048615 31.09375,11.0625 z M 41.28125,19.03125 L 45.875,24.125 L 37.28125,31.875 L 46.5625,40.21875 L 41.96875,45.3125 L 32.15625,36.46875 L 22.71875,44.96875 L 18.125,39.875 L 27.03125,31.875 L 18.8125,24.46875 L 23.40625,19.375 L 32.15625,27.25 L 41.28125,19.03125 z "
       style="opacity:1;fill:#ff0000;fill-opacity:1;stroke:none;stroke-width:2.9000001;stroke-linecap:round;stroke-linejoin:round;stroke-miterlimit:4;stroke-dasharray:none;stroke-dashoffset:0;stroke-opacity:1"
       id="path42194" />
    <g
       style="display:inline"
       id="g45920">
      <rect
         width="49.636364"
         height="49.636364"
         x="7.181818"
         y="7.181818"
         style="opacity:1;fill:none;fill-opacity:1;stroke:#000000;stroke-width:4;stroke-linecap:square;stroke-linejoin:round;stroke-miterlimit:4;stroke-dasharray:none;stroke-dashoffset:0;stroke-opacity:1"
         id="rect3960" />
    </g>
  </g>
</svg>
