<?xml version="1.0" encoding="UTF-8" standalone="no"?>
<!-- Created with Inkscape (http://www.inkscape.org/) -->
<svg
   xmlns:dc="http://purl.org/dc/elements/1.1/"
   xmlns:cc="http://web.resource.org/cc/"
   xmlns:rdf="http://www.w3.org/1999/02/22-rdf-syntax-ns#"
   xmlns:svg="http://www.w3.org/2000/svg"
   xmlns="http://www.w3.org/2000/svg"
   xmlns:sodipodi="http://inkscape.sourceforge.net/DTD/sodipodi-0.dtd"
   xmlns:inkscape="http://www.inkscape.org/namespaces/inkscape"
   version="1.0"
   width="64"
   height="64"
   id="svg1307"
   sodipodi:version="0.32"
   inkscape:version="0.43"
   sodipodi:docname="GraphAxesXPM.svg"
   sodipodi:docbase="/home/rahal/Work/CVS/Arabeyes/Public/projects/bayani/src/graphics">
  <metadata
     id="metadata5217">
    <rdf:RDF>
      <cc:Work
         rdf:about="">
        <dc:format>image/svg+xml</dc:format>
        <dc:type
           rdf:resource="http://purl.org/dc/dcmitype/StillImage" />
      </cc:Work>
    </rdf:RDF>
  </metadata>
  <sodipodi:namedview
     inkscape:window-height="540"
     inkscape:window-width="749"
     inkscape:pageshadow="2"
     inkscape:pageopacity="0.0"
     borderopacity="1.0"
     bordercolor="#666666"
     pagecolor="#ffffff"
     id="base"
     inkscape:zoom="5.84375"
     inkscape:cx="32"
     inkscape:cy="32"
     inkscape:window-x="0"
     inkscape:window-y="155"
     inkscape:current-layer="layer1" />
  <defs
     id="defs1309" />
  <g
     style="display:inline"
     id="layer1">
    <rect
       width="0.342246"
       height="48.000214"
       x="31.828876"
       y="7.9998932"
       style="opacity:1;fill:none;fill-opacity:1;stroke:#000000;stroke-width:1.95687723;stroke-linecap:round;stroke-linejoin:round;stroke-miterlimit:4;stroke-dasharray:none;stroke-dashoffset:0;stroke-opacity:1;display:inline"
       id="rect5730" />
    <rect
       width="0"
       height="2.909091"
       x="57.155079"
       y="2.909091"
       style="opacity:1;fill:#004492;fill-opacity:1;stroke:#000000;stroke-width:2;stroke-linecap:square;stroke-linejoin:round;stroke-miterlimit:4;stroke-dasharray:none;stroke-dashoffset:0;stroke-opacity:0.34090911"
       id="rect10947" />
    <rect
       width="0.342246"
       height="48.000214"
       x="31.828876"
       y="-56.000107"
       transform="matrix(0,1,-1,0,0,0)"
       style="opacity:1;fill:#000000;fill-opacity:1;stroke:#000000;stroke-width:1.95687723;stroke-linecap:round;stroke-linejoin:round;stroke-miterlimit:4;stroke-dasharray:none;stroke-dashoffset:0;stroke-opacity:1;display:inline"
       id="rect12739" />
    <g
       style="opacity:1;fill:#ff0000;fill-opacity:1"
       id="g20232"
       transform="translate(0,-4.962567)">
      <rect
         width="9.069519"
         height="3.0802138"
         x="27.208555"
         y="11.122994"
         style="opacity:1;fill:#ff0000;fill-opacity:1;stroke:none;stroke-width:3;stroke-linecap:square;stroke-linejoin:round;stroke-miterlimit:4;stroke-dasharray:none;stroke-dashoffset:0;stroke-opacity:1"
         id="rect20216" />
      <g
         transform="translate(-0.342246,0.342246)"
         style="fill:#ff0000;fill-opacity:1"
         id="g20228">
        <path
           d="M 40.213903,9.4117649 L 33.540107,13.264883 L 33.540107,5.5586469 L 40.213903,9.4117649 z "
           transform="translate(0.684492,3.080214)"
           style="fill:#ff0000;fill-opacity:1;stroke:none;stroke-width:3;stroke-linecap:square;stroke-linejoin:round;stroke-miterlimit:4;stroke-dasharray:none;stroke-dashoffset:0;stroke-opacity:1"
           id="path20218" />
        <path
           d="M 40.213903,9.4117649 L 33.540107,13.264883 L 33.540107,5.5586469 L 40.213903,9.4117649 z "
           transform="matrix(-1,0,0,1,64.03208,3.251336)"
           style="fill:#ff0000;fill-opacity:1;stroke:none;stroke-width:3;stroke-linecap:square;stroke-linejoin:round;stroke-miterlimit:4;stroke-dasharray:none;stroke-dashoffset:0;stroke-opacity:1;display:inline"
           id="path20220" />
      </g>
    </g>
    <g
       style="opacity:1;fill:#ff0000;fill-opacity:1;display:inline"
       id="g6092"
       transform="matrix(0,1,-1,0,69.04812,0.155084)">
      <rect
         width="9.069519"
         height="3.0802138"
         x="27.208555"
         y="11.122994"
         style="opacity:1;fill:#ff0000;fill-opacity:1;stroke:none;stroke-width:3;stroke-linecap:square;stroke-linejoin:round;stroke-miterlimit:4;stroke-dasharray:none;stroke-dashoffset:0;stroke-opacity:1"
         id="rect6094" />
      <g
         transform="translate(-0.342246,0.342246)"
         style="fill:#ff0000;fill-opacity:1"
         id="g6096">
        <path
           d="M 40.213903,9.4117649 L 33.540107,13.264883 L 33.540107,5.5586469 L 40.213903,9.4117649 z "
           transform="translate(0.684492,3.080214)"
           style="fill:#ff0000;fill-opacity:1;stroke:none;stroke-width:3;stroke-linecap:square;stroke-linejoin:round;stroke-miterlimit:4;stroke-dasharray:none;stroke-dashoffset:0;stroke-opacity:1"
           id="path6098" />
        <path
           d="M 40.213903,9.4117649 L 33.540107,13.264883 L 33.540107,5.5586469 L 40.213903,9.4117649 z "
           transform="matrix(-1,0,0,1,64.03208,3.251336)"
           style="fill:#ff0000;fill-opacity:1;stroke:none;stroke-width:3;stroke-linecap:square;stroke-linejoin:round;stroke-miterlimit:4;stroke-dasharray:none;stroke-dashoffset:0;stroke-opacity:1;display:inline"
           id="path6100" />
      </g>
    </g>
  </g>
</svg>
